<?xml version="1.0" encoding="UTF-8" standalone="no"?>
<!-- Created with Inkscape (http://www.inkscape.org/) -->

<svg
   xmlns:dc="http://purl.org/dc/elements/1.1/"
   xmlns:cc="http://creativecommons.org/ns#"
   xmlns:rdf="http://www.w3.org/1999/02/22-rdf-syntax-ns#"
   xmlns:svg="http://www.w3.org/2000/svg"
   xmlns="http://www.w3.org/2000/svg"
   xmlns:sodipodi="http://sodipodi.sourceforge.net/DTD/sodipodi-0.dtd"
   xmlns:inkscape="http://www.inkscape.org/namespaces/inkscape"
   width="507.08994"
   height="291.19067"
   id="svg5301"
   version="1.1"
   inkscape:version="0.48.4 r9939"
   sodipodi:docname="cvsa.neglect.journal.alphapeak.svg">
  <defs
     id="defs5303">
    <clipPath
       clipPathUnits="userSpaceOnUse"
       id="clipPath18">
      <path
         inkscape:connector-curvature="0"
         d="m -7.93e-6,6.1e-7 671.99998793,0 0,746.00002939 -671.99998793,0 0,-746.00002939 z"
         id="path20" />
    </clipPath>
  </defs>
  <sodipodi:namedview
     id="base"
     pagecolor="#ffffff"
     bordercolor="#666666"
     borderopacity="1.0"
     inkscape:pageopacity="1"
     inkscape:pageshadow="2"
     inkscape:zoom="1.4"
     inkscape:cx="348.02276"
     inkscape:cy="58.83564"
     inkscape:document-units="px"
     inkscape:current-layer="layer1"
     showgrid="false"
     inkscape:window-width="1635"
     inkscape:window-height="1026"
     inkscape:window-x="45"
     inkscape:window-y="24"
     inkscape:window-maximized="1"
     fit-margin-top="20"
     fit-margin-left="20"
     fit-margin-right="20"
     fit-margin-bottom="20" />
  <metadata
     id="metadata5306">
    <rdf:RDF>
      <cc:Work
         rdf:about="">
        <dc:format>image/svg+xml</dc:format>
        <dc:type
           rdf:resource="http://purl.org/dc/dcmitype/StillImage" />
        <dc:title></dc:title>
      </cc:Work>
    </rdf:RDF>
  </metadata>
  <g
     inkscape:label="Layer 1"
     inkscape:groupmode="layer"
     id="layer1"
     transform="translate(-241.49008,-584.29004)">
    <g
       id="g9777"
       transform="translate(-3.0113358e-6,0)">
      <g
         id="g9731">
        <g
           transform="matrix(0.93772134,0,0,0.70375896,214.21134,358.56143)"
           id="g808">
          <path
             id="path810"
             style="fill:none;stroke:#262626;stroke-width:0.66666698;stroke-linecap:butt;stroke-linejoin:round;stroke-miterlimit:10;stroke-opacity:0.14901961;stroke-dasharray:none"
             d="m 143.25,664 0,-255"
             inkscape:connector-curvature="0" />
        </g>
        <g
           transform="matrix(0.93772134,0,0,0.70375896,214.21134,358.56143)"
           id="g812">
          <path
             id="path814"
             style="fill:none;stroke:#262626;stroke-width:0.66666698;stroke-linecap:butt;stroke-linejoin:round;stroke-miterlimit:10;stroke-opacity:0.14901961;stroke-dasharray:none"
             d="m 255.75,664 0,-255"
             inkscape:connector-curvature="0" />
        </g>
        <g
           transform="matrix(0.93772134,0,0,0.70375896,214.21134,358.56143)"
           id="g816">
          <path
             id="path818"
             style="fill:none;stroke:#262626;stroke-width:0.66666698;stroke-linecap:butt;stroke-linejoin:round;stroke-miterlimit:10;stroke-opacity:0.14901961;stroke-dasharray:none"
             d="M 312,664 87,664"
             inkscape:connector-curvature="0" />
        </g>
        <g
           transform="matrix(0.93772134,0,0,0.70375896,214.21134,358.56143)"
           id="g820">
          <path
             id="path822"
             style="fill:none;stroke:#262626;stroke-width:0.66666698;stroke-linecap:butt;stroke-linejoin:round;stroke-miterlimit:10;stroke-opacity:0.14901961;stroke-dasharray:none"
             d="m 312,627.57141 -225,0"
             inkscape:connector-curvature="0" />
        </g>
        <g
           transform="matrix(0.93772134,0,0,0.70375896,214.21134,358.56143)"
           id="g824">
          <path
             id="path826"
             style="fill:none;stroke:#262626;stroke-width:0.66666698;stroke-linecap:butt;stroke-linejoin:round;stroke-miterlimit:10;stroke-opacity:0.14901961;stroke-dasharray:none"
             d="m 312,591.14288 -225,0"
             inkscape:connector-curvature="0" />
        </g>
        <g
           transform="matrix(0.93772134,0,0,0.70375896,214.21134,358.56143)"
           id="g828">
          <path
             id="path830"
             style="fill:none;stroke:#262626;stroke-width:0.66666698;stroke-linecap:butt;stroke-linejoin:round;stroke-miterlimit:10;stroke-opacity:0.14901961;stroke-dasharray:none"
             d="m 312,554.71429 -225,0"
             inkscape:connector-curvature="0" />
        </g>
        <g
           transform="matrix(0.93772134,0,0,0.70375896,214.21134,358.56143)"
           id="g832">
          <path
             id="path834"
             style="fill:none;stroke:#262626;stroke-width:0.66666698;stroke-linecap:butt;stroke-linejoin:round;stroke-miterlimit:10;stroke-opacity:0.14901961;stroke-dasharray:none"
             d="m 312,518.28571 -225,0"
             inkscape:connector-curvature="0" />
        </g>
        <g
           transform="matrix(0.93772134,0,0,0.70375896,214.21134,358.56143)"
           id="g836">
          <path
             id="path838"
             style="fill:none;stroke:#262626;stroke-width:0.66666698;stroke-linecap:butt;stroke-linejoin:round;stroke-miterlimit:10;stroke-opacity:0.14901961;stroke-dasharray:none"
             d="m 312,481.85715 -225,0"
             inkscape:connector-curvature="0" />
        </g>
        <g
           transform="matrix(0.93772134,0,0,0.70375896,214.21134,358.56143)"
           id="g840">
          <path
             id="path842"
             style="fill:none;stroke:#262626;stroke-width:0.66666698;stroke-linecap:butt;stroke-linejoin:round;stroke-miterlimit:10;stroke-opacity:0.14901961;stroke-dasharray:none"
             d="m 312,445.42856 -225,0"
             inkscape:connector-curvature="0" />
        </g>
        <g
           transform="matrix(0.93772134,0,0,0.70375896,214.21134,358.56143)"
           id="g844">
          <path
             id="path846"
             style="fill:none;stroke:#262626;stroke-width:0.66666698;stroke-linecap:butt;stroke-linejoin:round;stroke-miterlimit:10;stroke-opacity:0.14901961;stroke-dasharray:none"
             d="M 312,409 87,409"
             inkscape:connector-curvature="0" />
        </g>
        <g
           transform="matrix(0.93772134,0,0,0.70375896,214.21134,358.56143)"
           id="g848">
          <path
             id="path850"
             style="fill:none;stroke:#262626;stroke-width:0.66666698;stroke-linecap:square;stroke-linejoin:round;stroke-miterlimit:10;stroke-opacity:1;stroke-dasharray:none"
             d="m 87,664 225,0"
             inkscape:connector-curvature="0" />
        </g>
        <g
           transform="matrix(0.93772134,0,0,0.70375896,214.21134,358.56143)"
           id="g852">
          <path
             id="path854"
             style="fill:none;stroke:#262626;stroke-width:0.66666698;stroke-linecap:square;stroke-linejoin:round;stroke-miterlimit:10;stroke-opacity:1;stroke-dasharray:none"
             d="m 143.25,664 0,-2.54999"
             inkscape:connector-curvature="0" />
        </g>
        <g
           transform="matrix(0.93772134,0,0,0.70375896,214.21134,358.56143)"
           id="g856">
          <path
             id="path858"
             style="fill:none;stroke:#262626;stroke-width:0.66666698;stroke-linecap:square;stroke-linejoin:round;stroke-miterlimit:10;stroke-opacity:1;stroke-dasharray:none"
             d="m 255.75,664 0,-2.54999"
             inkscape:connector-curvature="0" />
        </g>
        <g
           transform="matrix(0.93772134,0,0,0.70375896,214.21134,358.56143)"
           id="g884">
          <path
             id="path886"
             style="fill:none;stroke:#262626;stroke-width:0.66666698;stroke-linecap:square;stroke-linejoin:round;stroke-miterlimit:10;stroke-opacity:1;stroke-dasharray:none"
             d="M 87,664 87,409"
             inkscape:connector-curvature="0" />
        </g>
        <g
           transform="matrix(0.93772134,0,0,0.70375896,214.21134,358.56143)"
           id="g888">
          <path
             id="path890"
             style="fill:none;stroke:#262626;stroke-width:0.66666698;stroke-linecap:square;stroke-linejoin:round;stroke-miterlimit:10;stroke-opacity:1;stroke-dasharray:none"
             d="m 87,664 2.550003,0"
             inkscape:connector-curvature="0" />
        </g>
        <g
           transform="matrix(0.93772134,0,0,0.70375896,214.21134,358.56143)"
           id="g892">
          <path
             id="path894"
             style="fill:none;stroke:#262626;stroke-width:0.66666698;stroke-linecap:square;stroke-linejoin:round;stroke-miterlimit:10;stroke-opacity:1;stroke-dasharray:none"
             d="m 87,627.57141 2.550003,0"
             inkscape:connector-curvature="0" />
        </g>
        <g
           transform="matrix(0.93772134,0,0,0.70375896,214.21134,358.56143)"
           id="g896">
          <path
             id="path898"
             style="fill:none;stroke:#262626;stroke-width:0.66666698;stroke-linecap:square;stroke-linejoin:round;stroke-miterlimit:10;stroke-opacity:1;stroke-dasharray:none"
             d="m 87,591.14288 2.550003,0"
             inkscape:connector-curvature="0" />
        </g>
        <g
           transform="matrix(0.93772134,0,0,0.70375896,214.21134,358.56143)"
           id="g900">
          <path
             id="path902"
             style="fill:none;stroke:#262626;stroke-width:0.66666698;stroke-linecap:square;stroke-linejoin:round;stroke-miterlimit:10;stroke-opacity:1;stroke-dasharray:none"
             d="m 87,554.71429 2.550003,0"
             inkscape:connector-curvature="0" />
        </g>
        <g
           transform="matrix(0.93772134,0,0,0.70375896,214.21134,358.56143)"
           id="g904">
          <path
             id="path906"
             style="fill:none;stroke:#262626;stroke-width:0.66666698;stroke-linecap:square;stroke-linejoin:round;stroke-miterlimit:10;stroke-opacity:1;stroke-dasharray:none"
             d="m 87,518.28571 2.550003,0"
             inkscape:connector-curvature="0" />
        </g>
        <g
           transform="matrix(0.93772134,0,0,0.70375896,214.21134,358.56143)"
           id="g908">
          <path
             id="path910"
             style="fill:none;stroke:#262626;stroke-width:0.66666698;stroke-linecap:square;stroke-linejoin:round;stroke-miterlimit:10;stroke-opacity:1;stroke-dasharray:none"
             d="m 87,481.85715 2.550003,0"
             inkscape:connector-curvature="0" />
        </g>
        <g
           transform="matrix(0.93772134,0,0,0.70375896,214.21134,358.56143)"
           id="g912">
          <path
             id="path914"
             style="fill:none;stroke:#262626;stroke-width:0.66666698;stroke-linecap:square;stroke-linejoin:round;stroke-miterlimit:10;stroke-opacity:1;stroke-dasharray:none"
             d="m 87,445.42856 2.550003,0"
             inkscape:connector-curvature="0" />
        </g>
        <g
           transform="matrix(0.93772134,0,0,0.70375896,214.21134,358.56143)"
           id="g916">
          <path
             id="path918"
             style="fill:none;stroke:#262626;stroke-width:0.66666698;stroke-linecap:square;stroke-linejoin:round;stroke-miterlimit:10;stroke-opacity:1;stroke-dasharray:none"
             d="m 87,409 2.550003,0"
             inkscape:connector-curvature="0" />
        </g>
      </g>
      <g
         id="g9669">
        <g
           transform="matrix(0.93772134,0,0,0.70375896,214.21134,358.56143)"
           id="g1000"
           style="stroke-width:1.84647059;stroke-miterlimit:4;stroke-dasharray:none">
          <path
             id="path1002"
             style="fill:none;stroke:#0072bd;stroke-width:1.84647059;stroke-linecap:butt;stroke-linejoin:round;stroke-miterlimit:4;stroke-opacity:1;stroke-dasharray:none"
             d="m 143.25,625.45544 0,-44.33947"
             inkscape:connector-curvature="0" />
        </g>
        <g
           transform="matrix(0.93772134,0,0,0.70375896,214.21134,358.56143)"
           id="g1004"
           style="stroke-width:1.84647059;stroke-miterlimit:4;stroke-dasharray:none">
          <path
             id="path1006"
             style="fill:none;stroke:#0072bd;stroke-width:1.84647059;stroke-linecap:butt;stroke-linejoin:round;stroke-miterlimit:4;stroke-opacity:1;stroke-dasharray:none"
             d="m 255.75,629.85486 0,-44.94715"
             inkscape:connector-curvature="0" />
        </g>
        <g
           transform="matrix(0.93772134,0,0,0.70375896,214.21134,358.56143)"
           id="g1008"
           style="stroke-width:1.84647059;stroke-miterlimit:4;stroke-dasharray:none">
          <path
             id="path1010"
             style="fill:none;stroke:#0072bd;stroke-width:1.84647059;stroke-linecap:butt;stroke-linejoin:round;stroke-miterlimit:4;stroke-opacity:1;stroke-dasharray:none"
             d="m 142.125,625.45544 2.25,0"
             inkscape:connector-curvature="0" />
        </g>
        <g
           transform="matrix(0.93772134,0,0,0.70375896,214.21134,358.56143)"
           id="g1012"
           style="stroke-width:1.84647059;stroke-miterlimit:4;stroke-dasharray:none">
          <path
             id="path1014"
             style="fill:none;stroke:#0072bd;stroke-width:1.84647059;stroke-linecap:butt;stroke-linejoin:round;stroke-miterlimit:4;stroke-opacity:1;stroke-dasharray:none"
             d="m 254.625,629.85486 2.25,0"
             inkscape:connector-curvature="0" />
        </g>
        <g
           transform="matrix(0.93772134,0,0,0.70375896,214.21134,358.56143)"
           id="g1016"
           style="stroke-width:1.84647059;stroke-miterlimit:4;stroke-dasharray:none">
          <path
             id="path1018"
             style="fill:none;stroke:#0072bd;stroke-width:1.84647059;stroke-linecap:butt;stroke-linejoin:round;stroke-miterlimit:4;stroke-opacity:1;stroke-dasharray:none"
             d="m 142.125,581.11597 2.25,0"
             inkscape:connector-curvature="0" />
        </g>
        <g
           transform="matrix(0.93772134,0,0,0.70375896,214.21134,358.56143)"
           id="g1020"
           style="stroke-width:1.84647059;stroke-miterlimit:4;stroke-dasharray:none">
          <path
             id="path1022"
             style="fill:none;stroke:#0072bd;stroke-width:1.84647059;stroke-linecap:butt;stroke-linejoin:round;stroke-miterlimit:4;stroke-opacity:1;stroke-dasharray:none"
             d="m 254.625,584.90771 2.25,0"
             inkscape:connector-curvature="0" />
        </g>
        <g
           transform="matrix(0.93772134,0,0,0.70375896,214.21134,358.56143)"
           id="g1024"
           style="stroke-width:1.84647059;stroke-miterlimit:4;stroke-dasharray:none">
          <path
             id="path1026"
             style="fill:none;stroke:#0072bd;stroke-width:1.84647059;stroke-linecap:butt;stroke-linejoin:round;stroke-miterlimit:4;stroke-opacity:1;stroke-dasharray:none"
             d="m 143.25,603.28571 112.5,4.09558"
             inkscape:connector-curvature="0" />
        </g>
        <g
           id="g9586">
          <g
             style="stroke-width:1.84647059;stroke-miterlimit:4;stroke-dasharray:none"
             id="g1028"
             transform="matrix(0.93772134,0,0,0.70375896,214.21134,358.56143)">
            <path
               inkscape:connector-curvature="0"
               d="m 140,607 7,-7"
               style="fill:none;stroke:#0072bd;stroke-width:1.84647059;stroke-linecap:butt;stroke-linejoin:round;stroke-miterlimit:4;stroke-opacity:1;stroke-dasharray:none"
               id="path1030" />
          </g>
          <g
             style="stroke-width:1.84647059;stroke-miterlimit:4;stroke-dasharray:none"
             id="g1032"
             transform="matrix(0.93772134,0,0,0.70375896,214.21134,358.56143)">
            <path
               inkscape:connector-curvature="0"
               d="m 140,600 7,7"
               style="fill:none;stroke:#0072bd;stroke-width:1.84647059;stroke-linecap:butt;stroke-linejoin:round;stroke-miterlimit:4;stroke-opacity:1;stroke-dasharray:none"
               id="path1034" />
          </g>
        </g>
        <g
           id="g9580">
          <g
             style="stroke-width:1.84647059;stroke-miterlimit:4;stroke-dasharray:none"
             id="g1036"
             transform="matrix(0.93772134,0,0,0.70375896,214.21134,358.56143)">
            <path
               inkscape:connector-curvature="0"
               d="m 252,611 7,-7"
               style="fill:none;stroke:#0072bd;stroke-width:1.84647059;stroke-linecap:butt;stroke-linejoin:round;stroke-miterlimit:4;stroke-opacity:1;stroke-dasharray:none"
               id="path1038" />
          </g>
          <g
             style="stroke-width:1.84647059;stroke-miterlimit:4;stroke-dasharray:none"
             id="g1040"
             transform="matrix(0.93772134,0,0,0.70375896,214.21134,358.56143)">
            <path
               inkscape:connector-curvature="0"
               d="m 252,604 7,7"
               style="fill:none;stroke:#0072bd;stroke-width:1.84647059;stroke-linecap:butt;stroke-linejoin:round;stroke-miterlimit:4;stroke-opacity:1;stroke-dasharray:none"
               id="path1042" />
          </g>
        </g>
        <g
           transform="matrix(0.93772134,0,0,0.70375896,214.21134,358.56143)"
           id="g1044"
           style="stroke-width:1.84647059;stroke-miterlimit:4;stroke-dasharray:none">
          <path
             id="path1046"
             style="fill:none;stroke:#d95319;stroke-width:1.84647059;stroke-linecap:butt;stroke-linejoin:round;stroke-miterlimit:4;stroke-opacity:1;stroke-dasharray:none"
             d="m 143.25,627.57141 0,0"
             inkscape:connector-curvature="0" />
        </g>
        <g
           transform="matrix(0.93772134,0,0,0.70375896,214.21134,358.56143)"
           id="g1048"
           style="stroke-width:1.84647059;stroke-miterlimit:4;stroke-dasharray:none">
          <path
             id="path1050"
             style="fill:none;stroke:#d95319;stroke-width:1.84647059;stroke-linecap:butt;stroke-linejoin:round;stroke-miterlimit:4;stroke-opacity:1;stroke-dasharray:none"
             d="m 255.75,627.57141 0,0"
             inkscape:connector-curvature="0" />
        </g>
        <g
           transform="matrix(0.93772134,0,0,0.70375896,214.21134,358.56143)"
           id="g1052"
           style="stroke-width:1.84647059;stroke-miterlimit:4;stroke-dasharray:none">
          <path
             id="path1054"
             style="fill:none;stroke:#d95319;stroke-width:1.84647059;stroke-linecap:butt;stroke-linejoin:round;stroke-miterlimit:4;stroke-opacity:1;stroke-dasharray:none"
             d="m 142.125,627.57141 2.25,0"
             inkscape:connector-curvature="0" />
        </g>
        <g
           transform="matrix(0.93772134,0,0,0.70375896,214.21134,358.56143)"
           id="g1056"
           style="stroke-width:1.84647059;stroke-miterlimit:4;stroke-dasharray:none">
          <path
             id="path1058"
             style="fill:none;stroke:#d95319;stroke-width:1.84647059;stroke-linecap:butt;stroke-linejoin:round;stroke-miterlimit:4;stroke-opacity:1;stroke-dasharray:none"
             d="m 254.625,627.57141 2.25,0"
             inkscape:connector-curvature="0" />
        </g>
        <g
           transform="matrix(0.93772134,0,0,0.70375896,214.21134,358.56143)"
           id="g1060"
           style="stroke-width:1.84647059;stroke-miterlimit:4;stroke-dasharray:none">
          <path
             id="path1062"
             style="fill:none;stroke:#d95319;stroke-width:1.84647059;stroke-linecap:butt;stroke-linejoin:round;stroke-miterlimit:4;stroke-opacity:1;stroke-dasharray:none"
             d="m 142.125,627.57141 2.25,0"
             inkscape:connector-curvature="0" />
        </g>
        <g
           transform="matrix(0.93772134,0,0,0.70375896,214.21134,358.56143)"
           id="g1064"
           style="stroke-width:1.84647059;stroke-miterlimit:4;stroke-dasharray:none">
          <path
             id="path1066"
             style="fill:none;stroke:#d95319;stroke-width:1.84647059;stroke-linecap:butt;stroke-linejoin:round;stroke-miterlimit:4;stroke-opacity:1;stroke-dasharray:none"
             d="m 254.625,627.57141 2.25,0"
             inkscape:connector-curvature="0" />
        </g>
        <g
           transform="matrix(0.93772134,0,0,0.70375896,214.21134,358.56143)"
           id="g1068"
           style="stroke-width:1.84647059;stroke-miterlimit:4;stroke-dasharray:none">
          <path
             id="path1070"
             style="fill:none;stroke:#d95319;stroke-width:1.84647059;stroke-linecap:butt;stroke-linejoin:round;stroke-miterlimit:4;stroke-opacity:1;stroke-dasharray:none"
             d="m 143.25,627.57141 112.5,0"
             inkscape:connector-curvature="0" />
        </g>
        <g
           transform="matrix(0.93772134,0,0,0.70375896,214.21134,358.56143)"
           id="g1072"
           style="stroke-width:1.84647059;stroke-miterlimit:4;stroke-dasharray:none">
          <path
             id="path1074"
             style="fill:none;stroke:#d95319;stroke-width:1.84647059;stroke-linecap:butt;stroke-linejoin:miter;stroke-miterlimit:4;stroke-opacity:1;stroke-dasharray:none"
             d="m 140.38,630.62 0,-6.24 6.24,0 0,6.24 -6.24,0 z"
             inkscape:connector-curvature="0" />
        </g>
        <g
           transform="matrix(0.93772134,0,0,0.70375896,214.21134,358.56143)"
           id="g1076"
           style="stroke-width:1.84647059;stroke-miterlimit:4;stroke-dasharray:none">
          <path
             id="path1078"
             style="fill:none;stroke:#d95319;stroke-width:1.84647059;stroke-linecap:butt;stroke-linejoin:miter;stroke-miterlimit:4;stroke-opacity:1;stroke-dasharray:none"
             d="m 252.38,630.62 0,-6.24 6.24,0 0,6.24 -6.24,0 z"
             inkscape:connector-curvature="0" />
        </g>
        <g
           transform="matrix(0.93772134,0,0,0.70375896,214.21134,358.56143)"
           id="g1080"
           style="stroke-width:1.84647059;stroke-miterlimit:4;stroke-dasharray:none">
          <path
             id="path1082"
             style="fill:none;stroke:#edb120;stroke-width:1.84647059;stroke-linecap:butt;stroke-linejoin:round;stroke-miterlimit:4;stroke-opacity:1;stroke-dasharray:none"
             d="m 143.25,638.28571 0,-42.85712"
             inkscape:connector-curvature="0" />
        </g>
        <g
           transform="matrix(0.93772134,0,0,0.70375896,214.21134,358.56143)"
           id="g1084"
           style="stroke-width:1.84647059;stroke-miterlimit:4;stroke-dasharray:none">
          <path
             id="path1086"
             style="fill:none;stroke:#edb120;stroke-width:1.84647059;stroke-linecap:butt;stroke-linejoin:round;stroke-miterlimit:4;stroke-opacity:1;stroke-dasharray:none"
             d="m 255.75,641.64398 0,-56.61798"
             inkscape:connector-curvature="0" />
        </g>
        <g
           transform="matrix(0.93772134,0,0,0.70375896,214.21134,358.56143)"
           id="g1088"
           style="stroke-width:1.84647059;stroke-miterlimit:4;stroke-dasharray:none">
          <path
             id="path1090"
             style="fill:none;stroke:#edb120;stroke-width:1.84647059;stroke-linecap:butt;stroke-linejoin:round;stroke-miterlimit:4;stroke-opacity:1;stroke-dasharray:none"
             d="m 142.125,638.28571 2.25,0"
             inkscape:connector-curvature="0" />
        </g>
        <g
           transform="matrix(0.93772134,0,0,0.70375896,214.21134,358.56143)"
           id="g1092"
           style="stroke-width:1.84647059;stroke-miterlimit:4;stroke-dasharray:none">
          <path
             id="path1094"
             style="fill:none;stroke:#edb120;stroke-width:1.84647059;stroke-linecap:butt;stroke-linejoin:round;stroke-miterlimit:4;stroke-opacity:1;stroke-dasharray:none"
             d="m 254.625,641.64398 2.25,0"
             inkscape:connector-curvature="0" />
        </g>
        <g
           transform="matrix(0.93772134,0,0,0.70375896,214.21134,358.56143)"
           id="g1096"
           style="stroke-width:1.84647059;stroke-miterlimit:4;stroke-dasharray:none">
          <path
             id="path1098"
             style="fill:none;stroke:#edb120;stroke-width:1.84647059;stroke-linecap:butt;stroke-linejoin:round;stroke-miterlimit:4;stroke-opacity:1;stroke-dasharray:none"
             d="m 142.125,595.42859 2.25,0"
             inkscape:connector-curvature="0" />
        </g>
        <g
           transform="matrix(0.93772134,0,0,0.70375896,214.21134,358.56143)"
           id="g1100"
           style="stroke-width:1.84647059;stroke-miterlimit:4;stroke-dasharray:none">
          <path
             id="path1102"
             style="fill:none;stroke:#edb120;stroke-width:1.84647059;stroke-linecap:butt;stroke-linejoin:round;stroke-miterlimit:4;stroke-opacity:1;stroke-dasharray:none"
             d="m 254.625,585.026 2.25,0"
             inkscape:connector-curvature="0" />
        </g>
        <g
           transform="matrix(0.93772134,0,0,0.70375896,214.21134,358.56143)"
           id="g1104"
           style="stroke-width:1.84647059;stroke-miterlimit:4;stroke-dasharray:none">
          <path
             id="path1106"
             style="fill:none;stroke:#edb120;stroke-width:1.84647059;stroke-linecap:butt;stroke-linejoin:round;stroke-miterlimit:4;stroke-opacity:1;stroke-dasharray:none"
             d="m 143.25,616.85712 112.5,-3.52216"
             inkscape:connector-curvature="0" />
        </g>
        <g
           transform="matrix(0.93772134,0,0,0.70375896,214.21134,358.56143)"
           id="g1108"
           style="stroke-width:1.84647059;stroke-miterlimit:4;stroke-dasharray:none">
          <path
             id="path1110"
             style="fill:none;stroke:#edb120;stroke-width:1.84647059;stroke-linecap:butt;stroke-linejoin:miter;stroke-miterlimit:4;stroke-opacity:1;stroke-dasharray:none"
             d="m 138.88249,619.16602 9.23502,0 -4.61751,-7.99799 -4.61751,7.99799 z"
             inkscape:connector-curvature="0" />
        </g>
        <g
           transform="matrix(0.93772134,0,0,0.70375896,214.21134,358.56143)"
           id="g1112"
           style="stroke-width:1.84647059;stroke-miterlimit:4;stroke-dasharray:none">
          <path
             id="path1114"
             style="fill:none;stroke:#edb120;stroke-width:1.84647059;stroke-linecap:butt;stroke-linejoin:miter;stroke-miterlimit:4;stroke-opacity:1;stroke-dasharray:none"
             d="m 250.88249,616.16602 9.23503,0 -4.61752,-7.99799 -4.61751,7.99799 z"
             inkscape:connector-curvature="0" />
        </g>
      </g>
    </g>
    <g
       id="g9993"
       transform="translate(-28.89379,0)">
      <g
         id="g9947">
        <g
           transform="matrix(0.93772134,0,0,0.70375849,187.06848,358.56169)"
           id="g1180">
          <path
             id="path1182"
             style="fill:none;stroke:#262626;stroke-width:0.66666698;stroke-linecap:butt;stroke-linejoin:round;stroke-miterlimit:10;stroke-opacity:0.14901961;stroke-dasharray:none"
             d="m 439.25,664 0,-255"
             inkscape:connector-curvature="0" />
        </g>
        <g
           transform="matrix(0.93772134,0,0,0.70375849,187.06848,358.56169)"
           id="g1184">
          <path
             id="path1186"
             style="fill:none;stroke:#262626;stroke-width:0.66666698;stroke-linecap:butt;stroke-linejoin:round;stroke-miterlimit:10;stroke-opacity:0.14901961;stroke-dasharray:none"
             d="m 551.75,664 0,-255"
             inkscape:connector-curvature="0" />
        </g>
        <g
           transform="matrix(0.93772134,0,0,0.70375849,187.06848,358.56169)"
           id="g1188">
          <path
             id="path1190"
             style="fill:none;stroke:#262626;stroke-width:0.66666698;stroke-linecap:butt;stroke-linejoin:round;stroke-miterlimit:10;stroke-opacity:0.14901961;stroke-dasharray:none"
             d="m 608,664 -225,0"
             inkscape:connector-curvature="0" />
        </g>
        <g
           transform="matrix(0.93772134,0,0,0.70375849,187.06848,358.56169)"
           id="g1192">
          <path
             id="path1194"
             style="fill:none;stroke:#262626;stroke-width:0.66666698;stroke-linecap:butt;stroke-linejoin:round;stroke-miterlimit:10;stroke-opacity:0.14901961;stroke-dasharray:none"
             d="m 608,627.57141 -225,0"
             inkscape:connector-curvature="0" />
        </g>
        <g
           transform="matrix(0.93772134,0,0,0.70375849,187.06848,358.56169)"
           id="g1196">
          <path
             id="path1198"
             style="fill:none;stroke:#262626;stroke-width:0.66666698;stroke-linecap:butt;stroke-linejoin:round;stroke-miterlimit:10;stroke-opacity:0.14901961;stroke-dasharray:none"
             d="m 608,591.14288 -225,0"
             inkscape:connector-curvature="0" />
        </g>
        <g
           transform="matrix(0.93772134,0,0,0.70375849,187.06848,358.56169)"
           id="g1200">
          <path
             id="path1202"
             style="fill:none;stroke:#262626;stroke-width:0.66666698;stroke-linecap:butt;stroke-linejoin:round;stroke-miterlimit:10;stroke-opacity:0.14901961;stroke-dasharray:none"
             d="m 608,554.71429 -225,0"
             inkscape:connector-curvature="0" />
        </g>
        <g
           transform="matrix(0.93772134,0,0,0.70375849,187.06848,358.56169)"
           id="g1204">
          <path
             id="path1206"
             style="fill:none;stroke:#262626;stroke-width:0.66666698;stroke-linecap:butt;stroke-linejoin:round;stroke-miterlimit:10;stroke-opacity:0.14901961;stroke-dasharray:none"
             d="m 608,518.28571 -225,0"
             inkscape:connector-curvature="0" />
        </g>
        <g
           transform="matrix(0.93772134,0,0,0.70375849,187.06848,358.56169)"
           id="g1208">
          <path
             id="path1210"
             style="fill:none;stroke:#262626;stroke-width:0.66666698;stroke-linecap:butt;stroke-linejoin:round;stroke-miterlimit:10;stroke-opacity:0.14901961;stroke-dasharray:none"
             d="m 608,481.85715 -225,0"
             inkscape:connector-curvature="0" />
        </g>
        <g
           transform="matrix(0.93772134,0,0,0.70375849,187.06848,358.56169)"
           id="g1212">
          <path
             id="path1214"
             style="fill:none;stroke:#262626;stroke-width:0.66666698;stroke-linecap:butt;stroke-linejoin:round;stroke-miterlimit:10;stroke-opacity:0.14901961;stroke-dasharray:none"
             d="m 608,445.42856 -225,0"
             inkscape:connector-curvature="0" />
        </g>
        <g
           transform="matrix(0.93772134,0,0,0.70375849,187.06848,358.56169)"
           id="g1216">
          <path
             id="path1218"
             style="fill:none;stroke:#262626;stroke-width:0.66666698;stroke-linecap:butt;stroke-linejoin:round;stroke-miterlimit:10;stroke-opacity:0.14901961;stroke-dasharray:none"
             d="m 608,409 -225,0"
             inkscape:connector-curvature="0" />
        </g>
        <g
           transform="matrix(0.93772134,0,0,0.70375849,187.06848,358.56169)"
           id="g1220">
          <path
             id="path1222"
             style="fill:none;stroke:#262626;stroke-width:0.66666698;stroke-linecap:square;stroke-linejoin:round;stroke-miterlimit:10;stroke-opacity:1;stroke-dasharray:none"
             d="m 383,664 225,0"
             inkscape:connector-curvature="0" />
        </g>
        <g
           transform="matrix(0.93772134,0,0,0.70375849,187.06848,358.56169)"
           id="g1224">
          <path
             id="path1226"
             style="fill:none;stroke:#262626;stroke-width:0.66666698;stroke-linecap:square;stroke-linejoin:round;stroke-miterlimit:10;stroke-opacity:1;stroke-dasharray:none"
             d="m 439.25,664 0,-2.54999"
             inkscape:connector-curvature="0" />
        </g>
        <g
           transform="matrix(0.93772134,0,0,0.70375849,187.06848,358.56169)"
           id="g1228">
          <path
             id="path1230"
             style="fill:none;stroke:#262626;stroke-width:0.66666698;stroke-linecap:square;stroke-linejoin:round;stroke-miterlimit:10;stroke-opacity:1;stroke-dasharray:none"
             d="m 551.75,664 0,-2.54999"
             inkscape:connector-curvature="0" />
        </g>
        <g
           transform="matrix(0.93772134,0,0,0.70375849,187.06848,358.56169)"
           id="g1256">
          <path
             id="path1258"
             style="fill:none;stroke:#262626;stroke-width:0.66666698;stroke-linecap:square;stroke-linejoin:round;stroke-miterlimit:10;stroke-opacity:1;stroke-dasharray:none"
             d="m 383,664 0,-255"
             inkscape:connector-curvature="0" />
        </g>
        <g
           transform="matrix(0.93772134,0,0,0.70375849,187.06848,358.56169)"
           id="g1260">
          <path
             id="path1262"
             style="fill:none;stroke:#262626;stroke-width:0.66666698;stroke-linecap:square;stroke-linejoin:round;stroke-miterlimit:10;stroke-opacity:1;stroke-dasharray:none"
             d="m 383,664 2.54999,0"
             inkscape:connector-curvature="0" />
        </g>
        <g
           transform="matrix(0.93772134,0,0,0.70375849,187.06848,358.56169)"
           id="g1264">
          <path
             id="path1266"
             style="fill:none;stroke:#262626;stroke-width:0.66666698;stroke-linecap:square;stroke-linejoin:round;stroke-miterlimit:10;stroke-opacity:1;stroke-dasharray:none"
             d="m 383,627.57141 2.54999,0"
             inkscape:connector-curvature="0" />
        </g>
        <g
           transform="matrix(0.93772134,0,0,0.70375849,187.06848,358.56169)"
           id="g1268">
          <path
             id="path1270"
             style="fill:none;stroke:#262626;stroke-width:0.66666698;stroke-linecap:square;stroke-linejoin:round;stroke-miterlimit:10;stroke-opacity:1;stroke-dasharray:none"
             d="m 383,591.14288 2.54999,0"
             inkscape:connector-curvature="0" />
        </g>
        <g
           transform="matrix(0.93772134,0,0,0.70375849,187.06848,358.56169)"
           id="g1272">
          <path
             id="path1274"
             style="fill:none;stroke:#262626;stroke-width:0.66666698;stroke-linecap:square;stroke-linejoin:round;stroke-miterlimit:10;stroke-opacity:1;stroke-dasharray:none"
             d="m 383,554.71429 2.54999,0"
             inkscape:connector-curvature="0" />
        </g>
        <g
           transform="matrix(0.93772134,0,0,0.70375849,187.06848,358.56169)"
           id="g1276">
          <path
             id="path1278"
             style="fill:none;stroke:#262626;stroke-width:0.66666698;stroke-linecap:square;stroke-linejoin:round;stroke-miterlimit:10;stroke-opacity:1;stroke-dasharray:none"
             d="m 383,518.28571 2.54999,0"
             inkscape:connector-curvature="0" />
        </g>
        <g
           transform="matrix(0.93772134,0,0,0.70375849,187.06848,358.56169)"
           id="g1280">
          <path
             id="path1282"
             style="fill:none;stroke:#262626;stroke-width:0.66666698;stroke-linecap:square;stroke-linejoin:round;stroke-miterlimit:10;stroke-opacity:1;stroke-dasharray:none"
             d="m 383,481.85715 2.54999,0"
             inkscape:connector-curvature="0" />
        </g>
        <g
           transform="matrix(0.93772134,0,0,0.70375849,187.06848,358.56169)"
           id="g1284">
          <path
             id="path1286"
             style="fill:none;stroke:#262626;stroke-width:0.66666698;stroke-linecap:square;stroke-linejoin:round;stroke-miterlimit:10;stroke-opacity:1;stroke-dasharray:none"
             d="m 383,445.42856 2.54999,0"
             inkscape:connector-curvature="0" />
        </g>
        <g
           transform="matrix(0.93772134,0,0,0.70375849,187.06848,358.56169)"
           id="g1288">
          <path
             id="path1290"
             style="fill:none;stroke:#262626;stroke-width:0.66666698;stroke-linecap:square;stroke-linejoin:round;stroke-miterlimit:10;stroke-opacity:1;stroke-dasharray:none"
             d="m 383,409 2.54999,0"
             inkscape:connector-curvature="0" />
        </g>
      </g>
      <g
         id="g9885">
        <g
           transform="matrix(0.93772134,0,0,0.70375849,187.06848,358.56169)"
           id="g1372"
           style="stroke-width:1.84647119;stroke-miterlimit:4;stroke-dasharray:none">
          <path
             id="path1374"
             style="fill:none;stroke:#0072bd;stroke-width:1.84647119;stroke-linecap:butt;stroke-linejoin:round;stroke-miterlimit:4;stroke-opacity:1;stroke-dasharray:none"
             d="m 439.25,548.0116 0,-86.5708"
             inkscape:connector-curvature="0" />
        </g>
        <g
           transform="matrix(0.93772134,0,0,0.70375849,187.06848,358.56169)"
           id="g1376"
           style="stroke-width:1.84647119;stroke-miterlimit:4;stroke-dasharray:none">
          <path
             id="path1378"
             style="fill:none;stroke:#0072bd;stroke-width:1.84647119;stroke-linecap:butt;stroke-linejoin:round;stroke-miterlimit:4;stroke-opacity:1;stroke-dasharray:none"
             d="m 551.75,573.06226 0,-108.73771"
             inkscape:connector-curvature="0" />
        </g>
        <g
           transform="matrix(0.93772134,0,0,0.70375849,187.06848,358.56169)"
           id="g1380"
           style="stroke-width:1.84647119;stroke-miterlimit:4;stroke-dasharray:none">
          <path
             id="path1382"
             style="fill:none;stroke:#0072bd;stroke-width:1.84647119;stroke-linecap:butt;stroke-linejoin:round;stroke-miterlimit:4;stroke-opacity:1;stroke-dasharray:none"
             d="m 438.125,548.0116 2.25,0"
             inkscape:connector-curvature="0" />
        </g>
        <g
           transform="matrix(0.93772134,0,0,0.70375849,187.06848,358.56169)"
           id="g1384"
           style="stroke-width:1.84647119;stroke-miterlimit:4;stroke-dasharray:none">
          <path
             id="path1386"
             style="fill:none;stroke:#0072bd;stroke-width:1.84647119;stroke-linecap:butt;stroke-linejoin:round;stroke-miterlimit:4;stroke-opacity:1;stroke-dasharray:none"
             d="m 550.625,573.06226 2.25,0"
             inkscape:connector-curvature="0" />
        </g>
        <g
           transform="matrix(0.93772134,0,0,0.70375849,187.06848,358.56169)"
           id="g1388"
           style="stroke-width:1.84647119;stroke-miterlimit:4;stroke-dasharray:none">
          <path
             id="path1390"
             style="fill:none;stroke:#0072bd;stroke-width:1.84647119;stroke-linecap:butt;stroke-linejoin:round;stroke-miterlimit:4;stroke-opacity:1;stroke-dasharray:none"
             d="m 438.125,461.4408 2.25,0"
             inkscape:connector-curvature="0" />
        </g>
        <g
           transform="matrix(0.93772134,0,0,0.70375849,187.06848,358.56169)"
           id="g1392"
           style="stroke-width:1.84647119;stroke-miterlimit:4;stroke-dasharray:none">
          <path
             id="path1394"
             style="fill:none;stroke:#0072bd;stroke-width:1.84647119;stroke-linecap:butt;stroke-linejoin:round;stroke-miterlimit:4;stroke-opacity:1;stroke-dasharray:none"
             d="m 550.625,464.32455 2.25,0"
             inkscape:connector-curvature="0" />
        </g>
        <g
           transform="matrix(0.93772134,0,0,0.70375849,187.06848,358.56169)"
           id="g1396"
           style="stroke-width:1.84647119;stroke-miterlimit:4;stroke-dasharray:none">
          <path
             id="path1398"
             style="fill:none;stroke:#0072bd;stroke-width:1.84647119;stroke-linecap:butt;stroke-linejoin:round;stroke-miterlimit:4;stroke-opacity:1;stroke-dasharray:none"
             d="m 439.25,504.7262 112.5,13.96722"
             inkscape:connector-curvature="0" />
        </g>
        <g
           id="g9470"
           style="stroke-width:1.5;stroke-miterlimit:4;stroke-dasharray:none">
          <g
             style="stroke-width:1.84647119;stroke-miterlimit:4;stroke-dasharray:none"
             id="g1400"
             transform="matrix(0.93772134,0,0,0.70375849,187.06848,358.56169)">
            <path
               inkscape:connector-curvature="0"
               d="m 436,508 7,-7"
               style="fill:none;stroke:#0072bd;stroke-width:1.84647119;stroke-linecap:butt;stroke-linejoin:round;stroke-miterlimit:4;stroke-opacity:1;stroke-dasharray:none"
               id="path1402" />
          </g>
          <g
             style="stroke-width:1.84647119;stroke-miterlimit:4;stroke-dasharray:none"
             id="g1404"
             transform="matrix(0.93772134,0,0,0.70375849,187.06848,358.56169)">
            <path
               inkscape:connector-curvature="0"
               d="m 436,501 7,7"
               style="fill:none;stroke:#0072bd;stroke-width:1.84647119;stroke-linecap:butt;stroke-linejoin:round;stroke-miterlimit:4;stroke-opacity:1;stroke-dasharray:none"
               id="path1406" />
          </g>
        </g>
        <g
           id="g9464"
           style="stroke-width:1.5;stroke-miterlimit:4;stroke-dasharray:none">
          <g
             style="stroke-width:1.84647119;stroke-miterlimit:4;stroke-dasharray:none"
             id="g1408"
             transform="matrix(0.93772134,0,0,0.70375849,187.06848,358.56169)">
            <path
               inkscape:connector-curvature="0"
               d="m 548,522 7,-7"
               style="fill:none;stroke:#0072bd;stroke-width:1.84647119;stroke-linecap:butt;stroke-linejoin:round;stroke-miterlimit:4;stroke-opacity:1;stroke-dasharray:none"
               id="path1410" />
          </g>
          <g
             style="stroke-width:1.84647119;stroke-miterlimit:4;stroke-dasharray:none"
             id="g1412"
             transform="matrix(0.93772134,0,0,0.70375849,187.06848,358.56169)">
            <path
               inkscape:connector-curvature="0"
               d="m 548,515 7,7"
               style="fill:none;stroke:#0072bd;stroke-width:1.84647119;stroke-linecap:butt;stroke-linejoin:round;stroke-miterlimit:4;stroke-opacity:1;stroke-dasharray:none"
               id="path1414" />
          </g>
        </g>
        <g
           transform="matrix(0.93772134,0,0,0.70375849,187.06848,358.56169)"
           id="g1416"
           style="stroke-width:1.84647119;stroke-miterlimit:4;stroke-dasharray:none">
          <path
             id="path1418"
             style="fill:none;stroke:#d95319;stroke-width:1.84647119;stroke-linecap:butt;stroke-linejoin:round;stroke-miterlimit:4;stroke-opacity:1;stroke-dasharray:none"
             d="m 439.25,636.67859 0,-36.42859"
             inkscape:connector-curvature="0" />
        </g>
        <g
           transform="matrix(0.93772134,0,0,0.70375849,187.06848,358.56169)"
           id="g1420"
           style="stroke-width:1.84647119;stroke-miterlimit:4;stroke-dasharray:none">
          <path
             id="path1422"
             style="fill:none;stroke:#d95319;stroke-width:1.84647119;stroke-linecap:butt;stroke-linejoin:round;stroke-miterlimit:4;stroke-opacity:1;stroke-dasharray:none"
             d="m 551.75,628.7052 0,-29.66376"
             inkscape:connector-curvature="0" />
        </g>
        <g
           transform="matrix(0.93772134,0,0,0.70375849,187.06848,358.56169)"
           id="g1424"
           style="stroke-width:1.84647119;stroke-miterlimit:4;stroke-dasharray:none">
          <path
             id="path1426"
             style="fill:none;stroke:#d95319;stroke-width:1.84647119;stroke-linecap:butt;stroke-linejoin:round;stroke-miterlimit:4;stroke-opacity:1;stroke-dasharray:none"
             d="m 438.125,636.67859 2.25,0"
             inkscape:connector-curvature="0" />
        </g>
        <g
           transform="matrix(0.93772134,0,0,0.70375849,187.06848,358.56169)"
           id="g1428"
           style="stroke-width:1.84647119;stroke-miterlimit:4;stroke-dasharray:none">
          <path
             id="path1430"
             style="fill:none;stroke:#d95319;stroke-width:1.84647119;stroke-linecap:butt;stroke-linejoin:round;stroke-miterlimit:4;stroke-opacity:1;stroke-dasharray:none"
             d="m 550.625,628.7052 2.25,0"
             inkscape:connector-curvature="0" />
        </g>
        <g
           transform="matrix(0.93772134,0,0,0.70375849,187.06848,358.56169)"
           id="g1432"
           style="stroke-width:1.84647119;stroke-miterlimit:4;stroke-dasharray:none">
          <path
             id="path1434"
             style="fill:none;stroke:#d95319;stroke-width:1.84647119;stroke-linecap:butt;stroke-linejoin:round;stroke-miterlimit:4;stroke-opacity:1;stroke-dasharray:none"
             d="m 438.125,600.25 2.25,0"
             inkscape:connector-curvature="0" />
        </g>
        <g
           transform="matrix(0.93772134,0,0,0.70375849,187.06848,358.56169)"
           id="g1436"
           style="stroke-width:1.84647119;stroke-miterlimit:4;stroke-dasharray:none">
          <path
             id="path1438"
             style="fill:none;stroke:#d95319;stroke-width:1.84647119;stroke-linecap:butt;stroke-linejoin:round;stroke-miterlimit:4;stroke-opacity:1;stroke-dasharray:none"
             d="m 550.625,599.04144 2.25,0"
             inkscape:connector-curvature="0" />
        </g>
        <g
           transform="matrix(0.93772134,0,0,0.70375849,187.06848,358.56169)"
           id="g1440"
           style="stroke-width:1.84647119;stroke-miterlimit:4;stroke-dasharray:none">
          <path
             id="path1442"
             style="fill:none;stroke:#d95319;stroke-width:1.84647119;stroke-linecap:butt;stroke-linejoin:round;stroke-miterlimit:4;stroke-opacity:1;stroke-dasharray:none"
             d="m 439.25,618.46429 112.5,-4.59094"
             inkscape:connector-curvature="0" />
        </g>
        <g
           transform="matrix(0.93772134,0,0,0.70375849,187.06848,358.56169)"
           id="g1444"
           style="stroke-width:1.84647119;stroke-miterlimit:4;stroke-dasharray:none">
          <path
             id="path1446"
             style="fill:none;stroke:#d95319;stroke-width:1.84647119;stroke-linecap:butt;stroke-linejoin:miter;stroke-miterlimit:4;stroke-opacity:1;stroke-dasharray:none"
             d="m 436.38,621.62 0,-6.24 6.24,0 0,6.24 -6.24,0 z"
             inkscape:connector-curvature="0" />
        </g>
        <g
           transform="matrix(0.93772134,0,0,0.70375849,187.06848,358.56169)"
           id="g1448"
           style="stroke-width:1.84647119;stroke-miterlimit:4;stroke-dasharray:none">
          <path
             id="path1450"
             style="fill:none;stroke:#d95319;stroke-width:1.84647119;stroke-linecap:butt;stroke-linejoin:miter;stroke-miterlimit:4;stroke-opacity:1;stroke-dasharray:none"
             d="m 548.38,616.62 0,-6.24 6.24,0 0,6.24 -6.24,0 z"
             inkscape:connector-curvature="0" />
        </g>
        <g
           transform="matrix(0.93772134,0,0,0.70375849,187.06848,358.56169)"
           id="g1452"
           style="stroke-width:1.84647119;stroke-miterlimit:4;stroke-dasharray:none">
          <path
             id="path1454"
             style="fill:none;stroke:#edb120;stroke-width:1.84647119;stroke-linecap:butt;stroke-linejoin:round;stroke-miterlimit:4;stroke-opacity:1;stroke-dasharray:none"
             d="m 439.25,620.05554 0,-98.0885"
             inkscape:connector-curvature="0" />
        </g>
        <g
           transform="matrix(0.93772134,0,0,0.70375849,187.06848,358.56169)"
           id="g1456"
           style="stroke-width:1.84647119;stroke-miterlimit:4;stroke-dasharray:none">
          <path
             id="path1458"
             style="fill:none;stroke:#edb120;stroke-width:1.84647119;stroke-linecap:butt;stroke-linejoin:round;stroke-miterlimit:4;stroke-opacity:1;stroke-dasharray:none"
             d="m 551.75,636.49567 0,-49.52381"
             inkscape:connector-curvature="0" />
        </g>
        <g
           transform="matrix(0.93772134,0,0,0.70375849,187.06848,358.56169)"
           id="g1460"
           style="stroke-width:1.84647119;stroke-miterlimit:4;stroke-dasharray:none">
          <path
             id="path1462"
             style="fill:none;stroke:#edb120;stroke-width:1.84647119;stroke-linecap:butt;stroke-linejoin:round;stroke-miterlimit:4;stroke-opacity:1;stroke-dasharray:none"
             d="m 438.125,620.05554 2.25,0"
             inkscape:connector-curvature="0" />
        </g>
        <g
           transform="matrix(0.93772134,0,0,0.70375849,187.06848,358.56169)"
           id="g1464"
           style="stroke-width:1.84647119;stroke-miterlimit:4;stroke-dasharray:none">
          <path
             id="path1466"
             style="fill:none;stroke:#edb120;stroke-width:1.84647119;stroke-linecap:butt;stroke-linejoin:round;stroke-miterlimit:4;stroke-opacity:1;stroke-dasharray:none"
             d="m 550.625,636.49567 2.25,0"
             inkscape:connector-curvature="0" />
        </g>
        <g
           transform="matrix(0.93772134,0,0,0.70375849,187.06848,358.56169)"
           id="g1468"
           style="stroke-width:1.84647119;stroke-miterlimit:4;stroke-dasharray:none">
          <path
             id="path1470"
             style="fill:none;stroke:#edb120;stroke-width:1.84647119;stroke-linecap:butt;stroke-linejoin:round;stroke-miterlimit:4;stroke-opacity:1;stroke-dasharray:none"
             d="m 438.125,521.96704 2.25,0"
             inkscape:connector-curvature="0" />
        </g>
        <g
           transform="matrix(0.93772134,0,0,0.70375849,187.06848,358.56169)"
           id="g1472"
           style="stroke-width:1.84647119;stroke-miterlimit:4;stroke-dasharray:none">
          <path
             id="path1474"
             style="fill:none;stroke:#edb120;stroke-width:1.84647119;stroke-linecap:butt;stroke-linejoin:round;stroke-miterlimit:4;stroke-opacity:1;stroke-dasharray:none"
             d="m 550.625,586.97186 2.25,0"
             inkscape:connector-curvature="0" />
        </g>
        <g
           transform="matrix(0.93772134,0,0,0.70375849,187.06848,358.56169)"
           id="g1476"
           style="stroke-width:1.84647119;stroke-miterlimit:4;stroke-dasharray:none">
          <path
             id="path1478"
             style="fill:none;stroke:#edb120;stroke-width:1.84647119;stroke-linecap:butt;stroke-linejoin:round;stroke-miterlimit:4;stroke-opacity:1;stroke-dasharray:none"
             d="m 439.25,571.01129 112.5,40.72247"
             inkscape:connector-curvature="0" />
        </g>
        <g
           transform="matrix(0.93772134,0,0,0.70375849,187.06848,358.56169)"
           id="g1480"
           style="stroke-width:1.84647119;stroke-miterlimit:4;stroke-dasharray:none">
          <path
             id="path1482"
             style="fill:none;stroke:#edb120;stroke-width:1.84647119;stroke-linecap:butt;stroke-linejoin:miter;stroke-miterlimit:4;stroke-opacity:1;stroke-dasharray:none"
             d="m 434.88248,574.16602 9.23504,0 -4.61752,-7.99799 -4.61752,7.99799 z"
             inkscape:connector-curvature="0" />
        </g>
        <g
           transform="matrix(0.93772134,0,0,0.70375849,187.06848,358.56169)"
           id="g1484"
           style="stroke-width:1.84647119;stroke-miterlimit:4;stroke-dasharray:none">
          <path
             id="path1486"
             style="fill:none;stroke:#edb120;stroke-width:1.84647119;stroke-linecap:butt;stroke-linejoin:miter;stroke-miterlimit:4;stroke-opacity:1;stroke-dasharray:none"
             d="m 546.88251,614.16602 9.23498,0 -4.61749,-7.99799 -4.61749,7.99799 z"
             inkscape:connector-curvature="0" />
        </g>
      </g>
    </g>
    <g
       id="g9653"
       transform="translate(10.501954,0)">
      <text
         sodipodi:linespacing="125%"
         id="text10928"
         y="650.039"
         x="266.95493"
         style="font-size:10px;font-style:normal;font-variant:normal;font-weight:normal;font-stretch:normal;text-align:start;line-height:125%;letter-spacing:0px;word-spacing:0px;writing-mode:lr-tb;text-anchor:start;fill:#000000;fill-opacity:1;stroke:none;font-family:Sans;-inkscape-font-specification:Sans"
         xml:space="preserve"><tspan
           y="650.039"
           x="266.95493"
           id="tspan10930"
           sodipodi:role="line">30</tspan></text>
      <text
         sodipodi:linespacing="125%"
         id="text10928-3"
         y="675.6759"
         x="267.16489"
         style="font-size:10px;font-style:normal;font-variant:normal;font-weight:normal;font-stretch:normal;text-align:start;line-height:125%;letter-spacing:0px;word-spacing:0px;writing-mode:lr-tb;text-anchor:start;fill:#000000;fill-opacity:1;stroke:none;font-family:Sans;-inkscape-font-specification:Sans"
         xml:space="preserve"><tspan
           y="675.6759"
           x="267.16489"
           id="tspan10930-6"
           sodipodi:role="line">25</tspan></text>
      <text
         sodipodi:linespacing="125%"
         id="text10928-7"
         y="701.31287"
         x="266.95493"
         style="font-size:10px;font-style:normal;font-variant:normal;font-weight:normal;font-stretch:normal;text-align:start;line-height:125%;letter-spacing:0px;word-spacing:0px;writing-mode:lr-tb;text-anchor:start;fill:#000000;fill-opacity:1;stroke:none;font-family:Sans;-inkscape-font-specification:Sans"
         xml:space="preserve"><tspan
           y="701.31287"
           x="266.95493"
           id="tspan10930-5"
           sodipodi:role="line">20</tspan></text>
      <text
         sodipodi:linespacing="125%"
         id="text10928-35"
         y="726.88391"
         x="267.16489"
         style="font-size:10px;font-style:normal;font-variant:normal;font-weight:normal;font-stretch:normal;text-align:start;line-height:125%;letter-spacing:0px;word-spacing:0px;writing-mode:lr-tb;text-anchor:start;fill:#000000;fill-opacity:1;stroke:none;font-family:Sans;-inkscape-font-specification:Sans"
         xml:space="preserve"><tspan
           y="726.88391"
           x="267.16489"
           id="tspan10930-62"
           sodipodi:role="line">15</tspan></text>
      <text
         sodipodi:linespacing="125%"
         id="text10928-9"
         y="752.58673"
         x="266.95493"
         style="font-size:10px;font-style:normal;font-variant:normal;font-weight:normal;font-stretch:normal;text-align:start;line-height:125%;letter-spacing:0px;word-spacing:0px;writing-mode:lr-tb;text-anchor:start;fill:#000000;fill-opacity:1;stroke:none;font-family:Sans;-inkscape-font-specification:Sans"
         xml:space="preserve"><tspan
           y="752.58673"
           x="266.95493"
           id="tspan10930-1"
           sodipodi:role="line">10</tspan></text>
      <text
         sodipodi:linespacing="125%"
         id="text10928-2"
         y="778.15771"
         x="273.53207"
         style="font-size:10px;font-style:normal;font-variant:normal;font-weight:normal;font-stretch:normal;text-align:start;line-height:125%;letter-spacing:0px;word-spacing:0px;writing-mode:lr-tb;text-anchor:start;fill:#000000;fill-opacity:1;stroke:none;font-family:Sans;-inkscape-font-specification:Sans"
         xml:space="preserve"><tspan
           y="778.15771"
           x="273.53207"
           id="tspan10930-7"
           sodipodi:role="line">5</tspan></text>
      <text
         sodipodi:linespacing="125%"
         id="text10928-0"
         y="803.8606"
         x="273.32211"
         style="font-size:10px;font-style:normal;font-variant:normal;font-weight:normal;font-stretch:normal;text-align:start;line-height:125%;letter-spacing:0px;word-spacing:0px;writing-mode:lr-tb;text-anchor:start;fill:#000000;fill-opacity:1;stroke:none;font-family:Sans;-inkscape-font-specification:Sans"
         xml:space="preserve"><tspan
           y="803.8606"
           x="273.32211"
           id="tspan10930-9"
           sodipodi:role="line">0</tspan></text>
    </g>
    <text
       xml:space="preserve"
       style="font-size:40px;font-style:normal;font-weight:normal;line-height:125%;letter-spacing:0px;word-spacing:0px;fill:#000000;fill-opacity:1;stroke:none;font-family:Sans"
       x="321.47205"
       y="837.72583"
       id="text11116"
       sodipodi:linespacing="125%"><tspan
         sodipodi:role="line"
         id="tspan11118"
         x="321.47205"
         y="837.72583"
         style="font-size:10px">Calibration</tspan></text>
    <text
       xml:space="preserve"
       style="font-size:40px;font-style:normal;font-weight:normal;line-height:125%;letter-spacing:0px;word-spacing:0px;fill:#000000;fill-opacity:1;stroke:none;font-family:Sans"
       x="437.88611"
       y="837.72583"
       id="text11116-9"
       sodipodi:linespacing="125%"><tspan
         sodipodi:role="line"
         id="tspan11118-2"
         x="437.88611"
         y="837.72583"
         style="font-size:10px">Online</tspan></text>
    <text
       xml:space="preserve"
       style="font-size:40px;font-style:normal;font-weight:normal;line-height:125%;letter-spacing:0px;word-spacing:0px;fill:#000000;fill-opacity:1;stroke:none;font-family:Sans"
       x="543.00092"
       y="837.72583"
       id="text11116-3"
       sodipodi:linespacing="125%"><tspan
         sodipodi:role="line"
         id="tspan11118-6"
         x="543.00092"
         y="837.72583"
         style="font-size:10px">Calibration</tspan></text>
    <text
       xml:space="preserve"
       style="font-size:40px;font-style:normal;font-weight:normal;line-height:125%;letter-spacing:0px;word-spacing:0px;fill:#000000;fill-opacity:1;stroke:none;font-family:Sans"
       x="659.41498"
       y="837.72583"
       id="text11116-9-7"
       sodipodi:linespacing="125%"><tspan
         sodipodi:role="line"
         id="tspan11118-2-5"
         x="659.41498"
         y="837.72583"
         style="font-size:10px">Online</tspan></text>
    <text
       xml:space="preserve"
       style="font-size:40px;font-style:normal;font-weight:normal;line-height:125%;letter-spacing:0px;word-spacing:0px;fill:#000000;fill-opacity:1;stroke:none;font-family:Sans"
       x="375.30627"
       y="852.98462"
       id="text12503"
       sodipodi:linespacing="125%"><tspan
         sodipodi:role="line"
         id="tspan12505"
         x="375.30627"
         y="852.98462"
         style="font-size:12px">Modality</tspan></text>
    <text
       xml:space="preserve"
       style="font-size:40px;font-style:normal;font-weight:normal;line-height:125%;letter-spacing:0px;word-spacing:0px;fill:#000000;fill-opacity:1;stroke:none;font-family:Sans"
       x="596.83514"
       y="852.98462"
       id="text12503-3"
       sodipodi:linespacing="125%"><tspan
         sodipodi:role="line"
         id="tspan12505-5"
         x="596.83514"
         y="852.98462"
         style="font-size:12px">Modality</tspan></text>
    <text
       xml:space="preserve"
       style="font-size:40px;font-style:normal;font-weight:normal;line-height:125%;letter-spacing:0px;word-spacing:0px;fill:#000000;fill-opacity:1;stroke:none;font-family:Sans"
       x="-746.51971"
       y="270.60727"
       id="text11036"
       sodipodi:linespacing="125%"
       transform="matrix(0,-1,1,0,0,0)"><tspan
         sodipodi:role="line"
         id="tspan11038"
         x="-746.51971"
         y="270.60727"
         style="font-size:12px">[%]</tspan></text>
    <text
       xml:space="preserve"
       style="font-size:40px;font-style:normal;font-weight:normal;line-height:125%;letter-spacing:0px;word-spacing:0px;fill:#000000;fill-opacity:1;stroke:none;font-family:Sans"
       x="340.36096"
       y="637.63196"
       id="text11078"
       sodipodi:linespacing="125%"><tspan
         sodipodi:role="line"
         id="tspan11080"
         x="340.36096"
         y="637.63196"
         style="font-size:12px;font-weight:normal;-inkscape-font-specification:Sans">Healthy hemisphere</tspan></text>
    <text
       xml:space="preserve"
       style="font-size:40px;font-style:normal;font-weight:normal;line-height:125%;letter-spacing:0px;word-spacing:0px;fill:#000000;fill-opacity:1;stroke:none;font-family:Sans"
       x="560.6037"
       y="637.63196"
       id="text11078-6"
       sodipodi:linespacing="125%"><tspan
         sodipodi:role="line"
         id="tspan11080-2"
         x="560.6037"
         y="637.63196"
         style="font-size:12px;font-weight:normal;-inkscape-font-specification:Sans">Affected hemisphere</tspan></text>
    <text
       xml:space="preserve"
       style="font-size:40px;font-style:normal;font-weight:normal;line-height:125%;letter-spacing:0px;word-spacing:0px;fill:#000000;fill-opacity:1;stroke:none;font-family:Sans"
       x="345.76794"
       y="613.40723"
       id="text11112"
       sodipodi:linespacing="125%"><tspan
         sodipodi:role="line"
         id="tspan11114"
         x="345.76794"
         y="613.40723"
         style="font-size:12px;font-weight:bold;-inkscape-font-specification:Sans Bold">Missing alpha peaks over parieto-occipital nodes</tspan></text>
    <g
       id="g12406"
       transform="translate(-83.649579,129.40102)" />
    <g
       id="g10439"
       transform="translate(-378.71429,10.857143)">
      <rect
         y="638.14642"
         x="808.57385"
         height="33.726868"
         width="74.540878"
         id="rect12411"
         style="fill:#ffffff;fill-opacity:1;stroke:#000000;stroke-width:0.5;stroke-miterlimit:4;stroke-opacity:1;stroke-dasharray:none" />
      <g
         transform="translate(-5.3846988,0.0183105)"
         id="g10417">
        <g
           id="g10394"
           transform="translate(0,1.027535e-5)">
          <text
             sodipodi:linespacing="125%"
             id="text12220"
             y="648.15161"
             x="843.42932"
             style="font-size:40px;font-style:normal;font-weight:normal;line-height:125%;letter-spacing:0px;word-spacing:0px;fill:#000000;fill-opacity:1;stroke:none;font-family:Sans"
             xml:space="preserve"><tspan
               style="font-size:8px"
               y="648.15161"
               x="843.42932"
               id="tspan12222"
               sodipodi:role="line">Patient P1</tspan></text>
          <g
             transform="translate(-83.757089,149.40108)"
             id="g12286">
            <path
               style="fill:none;stroke:#0072bd;stroke-width:2;stroke-linecap:butt;stroke-linejoin:miter;stroke-miterlimit:4;stroke-opacity:1;stroke-dasharray:none"
               d="m 904.08653,187.50043 19.69797,0"
               id="path12242"
               inkscape:connector-curvature="0"
               transform="translate(0,308.2677)" />
          </g>
          <g
             transform="matrix(0.9643754,0,0,1.2849795,45.4875,-318.33604)"
             id="g10284">
            <path
               inkscape:connector-curvature="0"
               d="m 810.39585,747.35834 6.56405,4.92631"
               style="fill:none;stroke:#0072bd;stroke-width:1.5;stroke-linecap:butt;stroke-linejoin:round;stroke-miterlimit:4;stroke-opacity:1;stroke-dasharray:none"
               id="path1414-9" />
            <path
               inkscape:connector-curvature="0"
               d="m 816.9599,747.35834 -6.56405,4.92631"
               style="fill:none;stroke:#0072bd;stroke-width:1.5;stroke-linecap:butt;stroke-linejoin:round;stroke-miterlimit:4;stroke-opacity:1;stroke-dasharray:none"
               id="path1414-9-1" />
          </g>
        </g>
        <g
           id="g10410"
           transform="translate(0,2.0000029)">
          <g
             transform="translate(-83.649579,136.2361)"
             id="g12294">
            <path
               style="fill:none;stroke:#edb120;stroke-width:2;stroke-linecap:butt;stroke-linejoin:miter;stroke-miterlimit:4;stroke-opacity:1;stroke-dasharray:none"
               d="m 903.97902,526.57778 19.69797,0"
               id="path12242-0"
               inkscape:connector-curvature="0" />
          </g>
          <text
             sodipodi:linespacing="125%"
             id="text12220-5"
             y="665.79626"
             x="843.42932"
             style="font-size:40px;font-style:normal;font-weight:normal;line-height:125%;letter-spacing:0px;word-spacing:0px;fill:#000000;fill-opacity:1;stroke:none;font-family:Sans"
             xml:space="preserve"><tspan
               style="font-size:8px"
               y="665.79626"
               x="843.42932"
               id="tspan12222-5"
               sodipodi:role="line">Patient P3</tspan></text>
          <path
             inkscape:connector-curvature="0"
             d="m 826.88584,666.10646 6.58518,0 -3.29259,-6.58517 -3.29259,6.58517 z"
             style="fill:none;stroke:#edb120;stroke-width:1.41482043;stroke-linecap:butt;stroke-linejoin:miter;stroke-miterlimit:4;stroke-opacity:1;stroke-dasharray:none"
             id="path1482-9" />
        </g>
        <g
           id="g10403"
           transform="translate(0,1.0000441)">
          <g
             transform="translate(-81.629269,144.58632)"
             id="g12290">
            <path
               style="fill:none;stroke:#d95319;stroke-width:2;stroke-linecap:butt;stroke-linejoin:miter;stroke-miterlimit:4;stroke-opacity:1;stroke-dasharray:none"
               d="m 901.95871,509.40519 19.69797,0"
               id="path12242-3"
               inkscape:connector-curvature="0" />
          </g>
          <text
             sodipodi:linespacing="125%"
             id="text12220-6"
             y="656.97394"
             x="843.42932"
             style="font-size:40px;font-style:normal;font-weight:normal;line-height:125%;letter-spacing:0px;word-spacing:0px;fill:#000000;fill-opacity:1;stroke:none;font-family:Sans"
             xml:space="preserve"><tspan
               style="font-size:8px"
               y="656.97394"
               x="843.42932"
               id="tspan12222-1"
               sodipodi:role="line">Patient P2</tspan></text>
          <path
             inkscape:connector-curvature="0"
             d="m 827.09179,657.07814 0,-6.17327 6.17327,0 0,6.17327 -6.17327,0 z"
             style="fill:none;stroke:#d95319;stroke-width:1.82672477;stroke-linecap:butt;stroke-linejoin:miter;stroke-miterlimit:4;stroke-opacity:1;stroke-dasharray:none"
             id="path1446-3" />
        </g>
      </g>
    </g>
  </g>
</svg>
