===============================================================================
ANCOVA SHORT
===============================================================================

  Source       Sum Sq.   d.f.    Mean Sq.    F     Prob>F
---------------------------------------------------------
  Time            0.3        1   0.29606    1.76   0.1849
  Class           1.11       3   0.36892    2.19   0.0869
  Time*Class      0.07       3   0.02484    0.15   0.9313
  Error        4160.5    24704   0.16841                 
  Total        4167.01   24711                                            

===============================================================================
ANCOVA MEDIUM
===============================================================================

  Source       Sum Sq.   d.f.    Mean Sq.    F     Prob>F
---------------------------------------------------------
  Time            0.66       1   0.66423    4.05   0.0442
  Class           1.8        3   0.60027    3.66   0.0118
  Time*Class      1.62       3   0.53926    3.29   0.0198
  Error        8104.49   49416   0.16401                 
  Total        8108.35   49423                                               

===============================================================================
ANCOVA LONG
===============================================================================

  Source       Sum Sq.   d.f.    Mean Sq.     F       Prob>F   
---------------------------------------------------------------
  Time            15.5       1   15.4589    99.28   2.27274e-23
  Class            6.3       3    2.1007    13.49   8.50707e-09
  Time*Class      28         3    9.3466    60.02   9.49294e-39
  Error        11543     74128    0.1557                       
  Total        11796.5   74135                                                              

===============================================================================
2-WAY REPEATED ANOVA DURATION/CLASS
===============================================================================

  Source                     Sum Sq.   d.f.   Mean Sq.     F     Prob>F
-----------------------------------------------------------------------
  duration                     0.596      2   0.29808     2.47   0.098 
  classes                     18.631      3   6.21043    14.64   0     
  subject                     28.453     15   1.89684     4.24   0.0001
  duration*classes             1.036      6   0.17272     1.35   0.2385
  duration*subject             3.539     30   0.11797     0.94   0.5613
  classes*subject             20.505     45   0.45568     3.63   0     
  duration*classes*subject    11.262     90   0.12514     0.86   0.8281
  Error                      422.969   2897   0.146                    
  Total                      507.645   3088                            


posthoc:
	
    1.0000    2.0000   -0.2135   -0.1597   -0.1058    0.0000
    1.0000    3.0000   -0.0124    0.0412    0.0948    0.1982
    1.0000    4.0000   -0.1775   -0.1226   -0.0677    0.0000
    2.0000    3.0000    0.1478    0.2008    0.2538    0.0000
    2.0000    4.0000   -0.0172    0.0371    0.0914    0.2959
    3.0000    4.0000   -0.2178   -0.1637   -0.1097    0.0000
